{
  "project_info": {
    "project_number": "1048685637927",
    "firebase_url": "https://tagtalk-b0144.firebaseio.com",
    "project_id": "tagtalk-b0144",
    "storage_bucket": "tagtalk-b0144.appspot.com"
  },
  "client": [
    {
      "client_info": {
        "mobilesdk_app_id": "1:1048685637927:android:812de50eec227ad0",
        "android_client_info": {
          "package_name": "com.tagtalk.android"
        }
      },
      "oauth_client": [
        {
          "client_id": "1048685637927-dlhc6gt6n8tov3gdpjk1e15uhc75v898.apps.googleusercontent.com",
          "client_type": 3
        }
      ],
      "api_key": [
        {
          "current_key": "AIzaSyAl1FJO9shLFWodiPYUZBS38J8KS5-oLCo"
        }
      ],
      "services": {
        "analytics_service": {
          "status": 1
        },
        "appinvite_service": {
          "status": 1,
          "other_platform_oauth_client": []
        },
        "ads_service": {
          "status": 2
        }
      }
    }
  ],
  "configuration_version": "1"
}