{
  "project_info": {
    "project_number": "229277656678",
    "firebase_url": "https://iclick-messanger-android.firebaseio.com",
    "project_id": "iclick-messanger-android",
    "storage_bucket": "iclick-messanger-android.appspot.com"
  },
  "client": [
    {
      "client_info": {
        "mobilesdk_app_id": "1:229277656678:android:b7be325fb86cf9aa",
        "android_client_info": {
          "package_name": "com.iclick"
        }
      },
      "oauth_client": [
        {
          "client_id": "229277656678-h6qsgtch1nch8h36343uf8jpqqm9k24j.apps.googleusercontent.com",
          "client_type": 3
        }
      ],
      "api_key": [
        {
          "current_key": "AIzaSyAgcUSY5IEf42yqpZp0VkiW_Epv-4FIkTA"
        }
      ],
      "services": {
        "appinvite_service": {
          "other_platform_oauth_client": [
            {
              "client_id": "229277656678-h6qsgtch1nch8h36343uf8jpqqm9k24j.apps.googleusercontent.com",
              "client_type": 3
            }
          ]
        }
      }
    }
  ],
  "configuration_version": "1"
}