{
  "project_info": {
    "project_number": "1065969995137",
    "firebase_url": "https://sms-country.firebaseio.com",
    "project_id": "sms-country",
    "storage_bucket": "sms-country.appspot.com"
  },
  "client": [
    {
      "client_info": {
        "mobilesdk_app_id": "1:1065969995137:android:28d56a0a6b9e061f",
        "android_client_info": {
          "package_name": "com.smscountry"
        }
      },
      "oauth_client": [
        {
          "client_id": "1065969995137-nr0n4i77gvi2pjtegbhon2j2bml5us7o.apps.googleusercontent.com",
          "client_type": 3
        }
      ],
      "api_key": [
        {
          "current_key": "AIzaSyAh4DR5k_Dinj079G7Jd0juVCkoSyrUe9g"
        }
      ],
      "services": {
        "analytics_service": {
          "status": 1
        },
        "appinvite_service": {
          "status": 1,
          "other_platform_oauth_client": []
        },
        "ads_service": {
          "status": 2
        }
      }
    }
  ],
  "configuration_version": "1"
}