{
  "project_info": {
    "project_number": "876337634221",
    "firebase_url": "https://ichat-3da8c.firebaseio.com",
    "project_id": "ichat-3da8c",
    "storage_bucket": "ichat-3da8c.appspot.com"
  },
  "client": [
    {
      "client_info": {
        "mobilesdk_app_id": "1:876337634221:android:068c21145fe2731e",
        "android_client_info": {
          "package_name": "com.android.ichat"
        }
      },
      "oauth_client": [
        {
          "client_id": "876337634221-0qfb5cibhu20jc8e5icabb1fmacubp9e.apps.googleusercontent.com",
          "client_type": 1,
          "android_info": {
            "package_name": "com.android.ichat",
            "certificate_hash": "2910cb086a7293b33670dfa75fd7c4d735c1e93f"
          }
        },
        {
          "client_id": "876337634221-dvqvb1siq5mqeaklukbp3ujpon7tvvvp.apps.googleusercontent.com",
          "client_type": 3
        }
      ],
      "api_key": [
        {
          "current_key": "AIzaSyB9lBTjqc1UfMCAZIMtrewgPNlVL-eXgek"
        }
      ],
      "services": {
        "appinvite_service": {
          "other_platform_oauth_client": [
            {
              "client_id": "876337634221-dvqvb1siq5mqeaklukbp3ujpon7tvvvp.apps.googleusercontent.com",
              "client_type": 3
            },
            {
              "client_id": "876337634221-ntsipprstn1qa3sg2dpao644vpo8ks8f.apps.googleusercontent.com",
              "client_type": 2,
              "ios_info": {
                "bundle_id": "com.hpc.mychat"
              }
            }
          ]
        }
      }
    },
    {
      "client_info": {
        "mobilesdk_app_id": "1:876337634221:android:7829ef9df63ba443",
        "android_client_info": {
          "package_name": "com.tech.ichat"
        }
      },
      "oauth_client": [
        {
          "client_id": "876337634221-dvqvb1siq5mqeaklukbp3ujpon7tvvvp.apps.googleusercontent.com",
          "client_type": 3
        }
      ],
      "api_key": [
        {
          "current_key": "AIzaSyB9lBTjqc1UfMCAZIMtrewgPNlVL-eXgek"
        }
      ],
      "services": {
        "appinvite_service": {
          "other_platform_oauth_client": [
            {
              "client_id": "876337634221-dvqvb1siq5mqeaklukbp3ujpon7tvvvp.apps.googleusercontent.com",
              "client_type": 3
            },
            {
              "client_id": "876337634221-ntsipprstn1qa3sg2dpao644vpo8ks8f.apps.googleusercontent.com",
              "client_type": 2,
              "ios_info": {
                "bundle_id": "com.hpc.mychat"
              }
            }
          ]
        }
      }
    }
  ],
  "configuration_version": "1"
}