{
  "project_info": {
    "project_number": "296282601591",
    "firebase_url": "https://neoim-c421b.firebaseio.com",
    "project_id": "neoim-c421b",
    "storage_bucket": "neoim-c421b.appspot.com"
  },
  "client": [
    {
      "client_info": {
        "mobilesdk_app_id": "1:296282601591:android:df91ef483f7b4614",
        "android_client_info": {
          "package_name": "com.neoim.neo"
        }
      },
      "oauth_client": [
        {
          "client_id": "296282601591-7bbmsobe0bu1723ujl6qr06247tgs82o.apps.googleusercontent.com",
          "client_type": 3
        }
      ],
      "api_key": [
        {
          "current_key": "AIzaSyB7Is2S0Nc1qWiVc_jK3yULc4Hj_gRlSWA"
        }
      ],
      "services": {
        "analytics_service": {
          "status": 1
        },
        "appinvite_service": {
          "status": 1,
          "other_platform_oauth_client": []
        },
        "ads_service": {
          "status": 2
        }
      }
    }
  ],
  "configuration_version": "1"
}