{
  "project_info": {
    "project_number": "714669436875",
    "firebase_url": "https://maschat-c58b0.firebaseio.com",
    "project_id": "maschat-c58b0",
    "storage_bucket": "maschat-c58b0.appspot.com"
  },
  "client": [
    {
      "client_info": {
        "mobilesdk_app_id": "1:714669436875:android:ba6873084e235754",
        "android_client_info": {
          "package_name": "com.maschat"
        }
      },
      "oauth_client": [
        {
          "client_id": "714669436875-b22sai4i1l0bihkv7lbe6iaf0duql83c.apps.googleusercontent.com",
          "client_type": 3
        }
      ],
      "api_key": [
        {
          "current_key": "AIzaSyDLWTrR8uZgs0pZoopK3EWVKaYb_GzRsE4"
        }
      ],
      "services": {
        "appinvite_service": {
          "other_platform_oauth_client": [
            {
              "client_id": "714669436875-b22sai4i1l0bihkv7lbe6iaf0duql83c.apps.googleusercontent.com",
              "client_type": 3
            }
          ]
        }
      }
    }
  ],
  "configuration_version": "1"
}