{
  "project_info": {
    "project_number": "482876826046",
    "firebase_url": "https://sitename-c9bcb.firebaseio.com",
    "project_id": "sitename-c9bcb",
    "storage_bucket": "sitename-c9bcb.appspot.com"
  },
  "client": [
    {
      "client_info": {
        "mobilesdk_app_id": "1:482876826046:android:4229ebfe8c1994fc",
        "android_client_info": {
          "package_name": "com.sitename.android"
        }
      },
      "oauth_client": [
        {
          "client_id": "482876826046-un9jju5dl4ab59k0aimbbe03dba6u1h7.apps.googleusercontent.com",
          "client_type": 1,
          "android_info": {
            "package_name": "com.sitename.android",
            "certificate_hash": "4eac3340c6e40316728ee0849ffd72c38d6456af"
          }
        },
        {
          "client_id": "482876826046-kvpnqe1qlo1om0mo0tpl1odacnp4gmoq.apps.googleusercontent.com",
          "client_type": 3
        }
      ],
      "api_key": [
        {
          "current_key": "AIzaSyDXm96WDmZJo2J6bDqjCKZjiP0Nxcqi18Y"
        }
      ],
      "services": {
        "analytics_service": {
          "status": 1
        },
        "appinvite_service": {
          "status": 2,
          "other_platform_oauth_client": [
            {
              "client_id": "482876826046-kvpnqe1qlo1om0mo0tpl1odacnp4gmoq.apps.googleusercontent.com",
              "client_type": 3
            }
          ]
        },
        "ads_service": {
          "status": 2
        }
      }
    }
  ],
  "configuration_version": "1"
}